{
  "project_info": {
    "project_number": "959839540329",
    "firebase_url": "https://time-fighter-fe1bb.firebaseio.com",
    "project_id": "time-fighter-fe1bb",
    "storage_bucket": "time-fighter-fe1bb.appspot.com"
  },
  "client": [
    {
      "client_info": {
        "mobilesdk_app_id": "1:959839540329:android:7660c6986ef2be2f",
        "android_client_info": {
          "package_name": "com.example.alexis.time_fighter"
        }
      },
      "oauth_client": [
        {
          "client_id": "959839540329-3ergtoav605ireehp0b00mjruqhok7j9.apps.googleusercontent.com",
          "client_type": 3
        }
      ],
      "api_key": [
        {
          "current_key": "AIzaSyB8uhhbEqHvwcFnkeE4Bb4AG5BSNL5u8T8"
        }
      ],
      "services": {
        "appinvite_service": {
          "other_platform_oauth_client": [
            {
              "client_id": "959839540329-3ergtoav605ireehp0b00mjruqhok7j9.apps.googleusercontent.com",
              "client_type": 3
            }
          ]
        }
      }
    }
  ],
  "configuration_version": "1"
}